…
out.TD
Compare 3 assemblages with Hill number order q = 0, 1, 2.
$class: iNEXT3D

DataInfo: basic data information
  Assemblage    n S.obs     SC f1 f2 f3 f4 f5 f6 f7 f8 f9 f10
1         EM  373    17 0.9920  3  1  1  0  0  1  0  1  1   1
2         MO 1490    39 0.9987  2  1  1  4  2  2  3  1  1   1
3         TR 1059    42 0.9962  4  2  4  2  2  2  0  1  2   2

iNextEst: diversity estimates with rarefied and extrapolated samples.
$size_based (LCL and UCL are obtained for fixed size.)

# A tibble: 45 x 10
   Assemblage     m Method        Order.q    qD qD.LCL qD.UCL    SC SC.LCL SC.UCL
   <chr>      <dbl> <chr>           <dbl> <dbl>  <dbl>  <dbl> <dbl>  <dbl>  <dbl>
 1 EM             1 Rarefaction         0  1      1.00   1    0.136  0.122  0.150
 2 EM           196 Rarefaction         0 15.2   13.8   16.6  0.987  0.981  0.993
 3 EM           373 Observed            0 17     14.7   19.3  0.992  0.985  0.999
 4 EM           550 Extrapolation       0 18.2   15.0   21.4  0.994  0.989  1.00 
 5 EM           746 Extrapolation       0 19.2   15.2   23.2  0.996  0.991  1    
 6 EM             1 Rarefaction         1  1      1      1    0.136  0.122  0.150
 7 EM           196 Rarefaction         1  9.07   8.35   9.78 0.987  0.981  0.993
 8 EM           373 Observed            1  9.27   8.53  10.0  0.992  0.985  0.999
 9 EM           550 Extrapolation       1  9.37   8.61  10.1  0.994  0.989  1.00 
10 EM           746 Extrapolation       1  9.43   8.66  10.2  0.996  0.991  1    
# ... with 35 more rows
# i Use `print(n = ...)` to see more rows

NOTE: The above output only shows five estimates for each assemblage; call iNEXT.object$iNextEst$size_based to view complete output.

$coverage_based (LCL and UCL are obtained for fixed coverage; interval length is wider due to varying size in bootstraps.)

# A tibble: 45 x 8
   Assemblage    SC     m Method        Order.q    qD qD.LCL qD.UCL
   <chr>      <dbl> <dbl> <chr>           <dbl> <dbl>  <dbl>  <dbl>
 1 EM         0.136    1  Rarefaction         0  1     0.935   1.07
 2 EM         0.987  196. Rarefaction         0 15.2  13.0    17.5 
 3 EM         0.992  373  Observed            0 17    13.0    21.0 
 4 EM         0.994  550. Extrapolation       0 18.2  13.5    22.9 
 5 EM         0.996  746. Extrapolation       0 19.2  13.9    24.5 
 6 EM         0.136    1  Rarefaction         1  1     0.938   1.06
 7 EM         0.987  196. Rarefaction         1  9.07  8.28    9.85
 8 EM         0.992  373  Observed            1  9.27  8.46   10.1 
 9 EM         0.994  550. Extrapolation       1  9.37  8.56   10.2 
10 EM         0.996  746. Extrapolation       1  9.43  8.62   10.2 
# ... with 35 more rows
# i Use `print(n = ...)` to see more rows
…
